IntelIndexerHarvesting.GDELT package
====================================

Submodules
----------

IntelIndexerHarvesting.GDELT.IIGDELTData module
-----------------------------------------------

.. automodule:: IntelIndexerHarvesting.GDELT.IIGDELTData
    :members:
    :undoc-members:
    :show-inheritance:

IntelIndexerHarvesting.GDELT.iiGDELTHarvester module
----------------------------------------------------

.. automodule:: IntelIndexerHarvesting.GDELT.iiGDELTHarvester
    :members:
    :undoc-members:
    :show-inheritance:

IntelIndexerHarvesting.GDELT.iiGDELTHarvester\_Elastic module
-------------------------------------------------------------

.. automodule:: IntelIndexerHarvesting.GDELT.iiGDELTHarvester_Elastic
    :members:
    :undoc-members:
    :show-inheritance:


Module contents
---------------

.. automodule:: IntelIndexerHarvesting.GDELT
    :members:
    :undoc-members:
    :show-inheritance:
