IntelIndexerModels.Ensembles package
====================================

Submodules
----------

IntelIndexerModels.Ensembles.iiEnsemble module
----------------------------------------------

.. automodule:: IntelIndexerModels.Ensembles.iiEnsemble
    :members:
    :undoc-members:
    :show-inheritance:


Module contents
---------------

.. automodule:: IntelIndexerModels.Ensembles
    :members:
    :undoc-members:
    :show-inheritance:
