IntelIndexerSimulation package
==============================

Submodules
----------

IntelIndexerSimulation.iiDataFeed module
----------------------------------------

.. automodule:: IntelIndexerSimulation.iiDataFeed
    :members:
    :undoc-members:
    :show-inheritance:

IntelIndexerSimulation.iiSimTables module
-----------------------------------------

.. automodule:: IntelIndexerSimulation.iiSimTables
    :members:
    :undoc-members:
    :show-inheritance:

IntelIndexerSimulation.iiSimpleLongPosition module
--------------------------------------------------

.. automodule:: IntelIndexerSimulation.iiSimpleLongPosition
    :members:
    :undoc-members:
    :show-inheritance:

IntelIndexerSimulation.iiSimpleMoneyManagement module
-----------------------------------------------------

.. automodule:: IntelIndexerSimulation.iiSimpleMoneyManagement
    :members:
    :undoc-members:
    :show-inheritance:

IntelIndexerSimulation.iiSimulation module
------------------------------------------

.. automodule:: IntelIndexerSimulation.iiSimulation
    :members:
    :undoc-members:
    :show-inheritance:

IntelIndexerSimulation.iiWealthManagement module
------------------------------------------------

.. automodule:: IntelIndexerSimulation.iiWealthManagement
    :members:
    :undoc-members:
    :show-inheritance:


Module contents
---------------

.. automodule:: IntelIndexerSimulation
    :members:
    :undoc-members:
    :show-inheritance:
