IntelIndexerUQ package
======================

Submodules
----------

IntelIndexerUQ.iiDropoutUQ module
---------------------------------

.. automodule:: IntelIndexerUQ.iiDropoutUQ
    :members:
    :undoc-members:
    :show-inheritance:

IntelIndexerUQ.iiMC\_Dropout module
-----------------------------------

.. automodule:: IntelIndexerUQ.iiMC_Dropout
    :members:
    :undoc-members:
    :show-inheritance:

IntelIndexerUQ.iiUQTemplate module
----------------------------------

.. automodule:: IntelIndexerUQ.iiUQTemplate
    :members:
    :undoc-members:
    :show-inheritance:

IntelIndexerUQ.iiUncertaintyQuantile module
-------------------------------------------

.. automodule:: IntelIndexerUQ.iiUncertaintyQuantile
    :members:
    :undoc-members:
    :show-inheritance:

IntelIndexerUQ.thresholding\_algo module
----------------------------------------

.. automodule:: IntelIndexerUQ.thresholding_algo
    :members:
    :undoc-members:
    :show-inheritance:


Module contents
---------------

.. automodule:: IntelIndexerUQ
    :members:
    :undoc-members:
    :show-inheritance:
