Taiyo\_Models.TSmodels package
==============================

.. automodule:: Taiyo_Models.TSmodels
    :members:
    :undoc-members:
    :show-inheritance:

Submodules
----------

.. automodule:: Taiyo_Models.TSmodels.toRandomWalk
    :members:
    :undoc-members:
    :show-inheritance:


